<svg version="1.1" viewBox="0 0 96 96" xmlns="http://www.w3.org/2000/svg" xmlns:xlink="http://www.w3.org/1999/xlink" id="Icons_Home" overflow="hidden"><style>
.MsftOfcThm_Background1_Fill {
 fill:#FFFFFF; 
}
</style>
<path d=" M 48 12 L 48 12 L 6 52 L 10.5 55.8 L 48 20.2 L 48 20.2 L 85.5 55.8 L 90 52 Z" stroke="none" stroke-width="1" stroke-dasharray="" stroke-dashoffset="1" fill="#FFFFFF" fill-opacity="1"/><path d=" M 18 54.3 L 18 84 L 42 84 L 42 59 L 54 59 L 54 84 L 78 84 L 78 54.3 L 48 25.8 L 18 54.3 Z" stroke="none" stroke-width="1" stroke-dasharray="" stroke-dashoffset="1" fill="#FFFFFF" fill-opacity="1"/></svg>